{
    "laptop": {
        "disable": [],
        "enable": [
            "AT Translated Set 2 keyboard",
            "ELAN1401:00 04F3:30DC Touchpad"
        ],
        "actions": [
            "echo 1 | sudo tee '/sys/class/leds/asus::kbd_backlight/brightness'"
        ]
    },
    "tablet": {
        "disable": [
            "AT Translated Set 2 keyboard",
            "ELAN1401:00 04F3:30DC Touchpad"
        ],
        "enable": [],
        "actions": [
            "echo 0 | sudo tee '/sys/class/leds/asus::kbd_backlight/brightness'"
        ]
    }
}